…
``` r
library(cutsurv)
library(tidyverse)
library(survival)
# library(skimr)
```

We will use HNSC data from the package for the examples below. To know
more about HNSC data, refer to `?HNSC`

``` r
data(HNSC)

HNSC
#> # A tibble: 502 × 23
#>    sample_id        subject_id   tumor_type sample_type  age_at_diagnosi… gender race 
#>    <chr>            <chr>        <chr>      <chr>                   <dbl> <chr>  <chr>
#>  1 TCGA-4P-AA8J-01A TCGA-4P-AA8J HNSC       Primary Tum…               66 male   Blac…
#>  2 TCGA-BA-4074-01A TCGA-BA-4074 HNSC       Primary Tum…               69 male   White
#>  3 TCGA-BA-4075-01A TCGA-BA-4075 HNSC       Primary Tum…               49 male   Blac…
#>  4 TCGA-BA-4076-01A TCGA-BA-4076 HNSC       Primary Tum…               39 male   White
#>  5 TCGA-BA-4077-01B TCGA-BA-4077 HNSC       Primary Tum…               45 female White
#>  6 TCGA-BA-4078-01A TCGA-BA-4078 HNSC       Primary Tum…               83 male   White
#>  7 TCGA-BA-5151-01A TCGA-BA-5151 HNSC       Primary Tum…               72 male   White
#>  8 TCGA-BA-5152-01A TCGA-BA-5152 HNSC       Primary Tum…               56 male   White
#>  9 TCGA-BA-5153-01A TCGA-BA-5153 HNSC       Primary Tum…               51 male   White
#> 10 TCGA-BA-5555-01A TCGA-BA-5555 HNSC       Primary Tum…               54 male   Blac…
#> # … with 492 more rows, and 16 more variables: SURVIVAL_os_days <dbl>,
#> #   SURVIVAL_os_event <dbl>, SURVIVAL_pfi_days <dbl>, SURVIVAL_pfi_event <dbl>,
#> #   cancer_grading <chr>, tnm_stage_pathologic_overall_stage <chr>, TNFRSF1B <dbl>,
#> #   `t_nk_cell:CD4+ T` <dbl>, `t_nk_cell:CD8+ T` <dbl>, `t_nk_cell:Treg` <dbl>,
#> #   `t_nk_cell:Cytotoxic` <dbl>, `t_nk_cell:NK` <dbl>, `t_nk_cell:Exhausted` <dbl>,
#> #   `myeloid:Anti-inflammatory` <dbl>, `myeloid:Pro-inflammatory` <dbl>,
#> #   subtype <chr>
…
Result also returns discretized input data which contains all the
variables in formula and can be used for other model fit in the future.

``` r
res[["data"]]
#> # A tibble: 498 × 5
#>    SURVIVAL_os_days SURVIVAL_os_event TNFRSF1B cancer_grading group
#>               <dbl>             <dbl>    <dbl> <chr>          <fct>
#>  1              102                 0     3.61 G2             high 
#>  2              462                 1     1.68 G3             low  
#>  3              283                 1     1.87 G2             low  
#>  4              415                 1     1.81 G2             low  
#>  5             1134                 1     3.88 G2             high 
#>  6              276                 1     2.74 G2             low  
#>  7              722                 0     3.51 G1             high 
#>  8             1288                 0     4.41 G2             high 
#>  9             1762                 1     4.74 G2             high 
#> 10              520                 0     3.17 G2             low  
#> # … with 488 more rows
```
…
Same as `run_coxph_1d`, result also returns discretized input data which
contains all the variables in formula and can be used for other model
fit in the future.

``` r
res[["data"]]
#> # A tibble: 498 × 7
#>    SURVIVAL_os_days SURVIVAL_os_event TNFRSF1B `t_nk_cell:Treg` cancer_grading gender
#>               <dbl>             <dbl>    <dbl>            <dbl> <chr>          <chr> 
#>  1              102                 0     3.61            0.665 G2             male  
#>  2              462                 1     1.68            0.540 G3             male  
#>  3              283                 1     1.87            0.274 G2             male  
#>  4              415                 1     1.81            0.596 G2             male  
#>  5             1134                 1     3.88            0.803 G2             female
#>  6              276                 1     2.74            0.641 G2             male  
#>  7              722                 0     3.51            0.666 G1             male  
#>  8             1288                 0     4.41            0.760 G2             male  
#>  9             1762                 1     4.74            0.554 G2             male  
#> 10              520                 0     3.17            0.607 G2             male  
#> # … with 488 more rows, and 1 more variable: group <fct>
```
…
